"arr_id","lat","lon","logCalls","selfProp","paretoIncl","paretoExcl","avgDWD","totalDWD","logTotalDWD","id"
1,14.7487396029412,-17.4466206029412,19.6499934927676,0.401837567172235,8,14,39.7945067331635,110611875.906359,18.5215380183799,1
2,14.7349763561644,-17.4807366164384,19.3371212566088,0.390527846052884,6,10,31.3684464988829,63766555.368335,17.970739400341,2
3,14.7182183472222,-17.4447929305556,19.633788168312,0.376940002132511,7,11,32.3080360557993,88359104.9181795,18.2969198065212,3
4,14.6795301756757,-17.4472285675676,19.7382856098835,0.453713990190689,6,12,32.3795773263272,98309296.0823522,18.4036291491339,4
5,14.773369575,-17.396878975,18.9665507181507,0.384225020731594,7,13,38.4333732585172,53935127.5245814,17.8032925402012,5
6,14.7542688666667,-17.3946961,18.9352334674451,0.359447302362823,8,14,40.3655978941533,54900169.6699626,17.8210269970025,6
7,14.7468332631579,-17.3466130789474,18.9158007313615,0.369762476707357,10,17,41.5810735631218,55464929.4568641,17.8312614773045,7
8,14.7768369375,-17.33649353125,18.7107291045348,0.387359687537851,9,17,42.7509273407859,46452258.1411813,17.653935636492,8
9,14.7215549615385,-17.271648,18.3968366187947,0.534500924226722,7,15,28.3325891915492,22491881.2128122,16.9286649670719,9
10,14.7370603214286,-17.2128355357143,18.1600043921584,0.39797711513627,10,16,38.3128301058143,24000971.4981861,16.9936048665841,10
11,14.8434496,-17.0887924,16.5927064633184,0.358489437992122,14,17,44.6022007102153,5828704.43059284,15.578305309033,11
12,14.4654576666667,-17.0015086923077,18.9394479596334,0.635775915115839,8,26,34.1694478571952,46669224.9871878,17.6585955115569,12
13,14.6300858333333,-16.8860371666667,15.1578864688225,0.26534483695425,11,14,39.9131432321101,1242216.43231586,14.0324077874177,13
14,14.7635652,-16.7396955,16.6198695915663,0.355167981857642,14,17,47.022617563134,6314214.672072,15.6583139469,14
15,14.9502154375,-16.8656925,17.4119850430593,0.455370735942872,12,19,45.1972931707626,13400973.172925,16.4108378871292,15
16,15.1356419166667,-16.78512875,16.7909172595103,0.454115230075205,13,19,49.7624710754979,7928655.32560495,15.8859940112132,16
17,15.0603215,-16.534856,14.7488884689341,0.23448685356565,17,20,62.0863607629668,1283665.79480398,14.0652304449316,17
18,15.18515275,-16.33080175,14.5238374416519,0.257545709598831,15,18,59.6254137395623,984348.199275052,13.7997349744922,18
19,14.7813242173913,-16.9296100869565,18.3960652328896,0.522029395184499,9,18,32.8738717122223,26076864.1171237,17.0765590468854,19
20,14.8075113846154,-16.9294989230769,17.5310191873444,0.383817943539494,10,15,34.2262545780683,11430866.6952004,16.2518278592481,20
21,14.5627735,-16.7068008333333,14.9107722396127,0.323036557284115,14,18,48.2563026287251,1173045.9828398,13.9751143279242,21
22,14.2876894615385,-16.7924836923077,17.375765475407,0.504034781825468,12,23,42.8173266147087,12243723.15528,16.3205239681482,22
23,14.787197,-15.560465,14.6908026130441,0.379532884142865,12,21,57.8835032431001,1129234.67624443,13.9370506835726,23
24,14.69647025,-15.90606475,14.1709895870819,0.174599681539376,19,22,66.4879534291872,771294.855136453,13.5558260115206,24
25,14.85419078125,-15.88808071875,18.821015286522,0.497392523094819,18,35,67.0320108370512,81328023.703992,18.2140012101304,25
26,14.6577667619048,-16.2216915714286,17.3460275794255,0.521788585572182,11,24,51.142611518554,14195864.6549678,16.4684612586771,26
27,14.91353025,-16.300156,14.0672127999246,0.220527237712572,18,21,64.2565240218491,671931.516518005,13.4179117043687,27
28,14.6886102,-16.4647437,16.2744130104105,0.372390816536338,14,20,56.1157293610269,5334175.0930789,15.4896448090344,28
29,14.81506,-16.5141428333333,14.804130509521,0.201694273872261,13,15,63.3236722756747,1383608.33890519,14.1402053829894,29
30,14.922503,-16.533875,14.3757752781548,0.287067937613069,17,19,57.546573177116,819283.544447822,13.616185511036,30
31,14.5265678,-15.7376084,14.4189961254867,0.293719759734993,20,27,68.891305584929,1024117.42542469,13.8393417512734,31
32,14.505831,-16.42021525,15.5786790048341,0.376087463939853,13,18,51.6404853633096,2448045.75785911,14.7108006143756,32
33,14.3829686,-16.5060212,16.8369487354336,0.471322999712048,13,20,48.2198495755146,8044789.18237217,15.9005351332638,33
34,14.48074225,-16.044445,14.8966148047604,0.313588198917682,18,25,66.2065934151275,1586769.11826046,14.2772105057871,34
35,14.4462527142857,-16.2715938571429,15.5759920997682,0.347929929597022,14,18,56.4087631585979,2666913.2247489,14.7964322659827,35
36,14.1591486666667,-16.6658453333333,16.4925222773056,0.53543901093513,8,15,38.276022693526,4525151.35303729,15.3251615827418,36
37,13.9269695,-16.664726,15.9899455247415,0.379939419450228,11,15,54.3069818846765,3884147.04899708,15.1724139678716,37
38,13.7423369166667,-16.3820655833333,16.6065423440066,0.531924163877798,11,21,54.5683038290698,7230445.32918389,15.7938111868693,38
39,14.0291033,-16.3490107,16.277851932857,0.483597816582311,11,19,49.1287922971079,4686107.51462562,15.3601128415822,39
40,15.746725,-16.3565854,15.1561525269551,0.266605277095671,12,16,74.6824049995377,2320313.10549686,14.6572126938022,40
41,15.7953796,-15.900126,15.7070212400856,0.428950326546571,12,19,62.6337776293817,3375795.62768748,15.0321415960431,41
42,15.6035582222222,-16.2200798888889,17.2935032262853,0.557627730275049,12,22,57.0088340978802,15014472.2547335,16.524525110912,42
43,15.505792,-15.9947972,15.4571941451997,0.353560595028211,15,21,64.8476941348767,2722472.80036217,14.8170511430551,43
44,15.352214,-16.54223475,16.4064878462132,0.44028006105163,14,20,59.4633430466643,6450469.844876,15.6796635302858,44
45,15.339026,-16.2694296,15.3277276264373,0.329142841020654,14,18,63.3258643600335,2335734.86389905,14.6638371164454,45
46,15.1062507692308,-16.0175502307692,15.908831459171,0.432687209474483,15,24,54.8839300060676,3619576.88925683,15.10186769555,46
47,15.2538451111111,-15.5590242222222,16.5539201469027,0.470462103684725,14,25,65.3778483184502,8218672.69931014,15.921919281891,47
48,15.7023894285714,-15.3849147142857,15.9011004099883,0.42827931936763,12,19,72.2019957552273,4725026.56998691,15.3683837421718,48
49,15.484960125,-15.062375375,16.2856296589014,0.495465226865519,12,22,79.803214826428,7671395.45237021,15.8530090932188,49
50,14.964899625,-15.127344875,15.8846740863589,0.4195761989756,15,25,70.7556738441393,4554937.92167189,15.3317224599712,50
51,14.2434764,-15.946701,14.3755291219174,0.189944051110838,19,22,60.9137653683434,867008.403245411,13.6728039480403,51
52,14.3391868,-15.9479816,15.4640087860733,0.360090445275261,17,24,61.8219326002503,2613190.9758497,14.7760826286478,52
53,14.2456282,-16.2111804,15.9346550282436,0.326811358896244,16,22,63.8349321187201,4320022.80333613,15.2787712387564,53
54,14.116242,-16.0409464333333,18.4783594496393,0.580369840291711,13,30,53.9884094010246,46499144.7107271,17.6549444770707,54
55,14.0209383333333,-16.147031,14.8662097976849,0.241071809487175,13,15,57.9811927013516,1348015.59112537,14.1141441365042,55
56,13.7549931818182,-15.8249184545455,16.6701960691152,0.509986888114404,9,20,57.1229560043178,8066399.49302552,15.903217781211,56
57,13.72963825,-16.056973125,15.6852913085442,0.381456615312707,11,16,62.4264896759022,3292298.96577137,15.0070966525035,57
58,13.6609718333333,-15.6258688333333,16.0004036361594,0.429631017836601,14,24,81.4725234868417,5888342.51297504,15.5884851090602,58
59,14.2644813636364,-15.5365484545455,16.6242389899177,0.488504450379235,15,29,63.106825579325,8511115.46622266,15.9568835690716,59
60,14.4617246666667,-15.256931,14.8686466352506,0.339407254588755,17,25,67.4635483609396,1572299.4247746,14.2680497076087,60
61,13.8988946363636,-15.4026153636364,15.4761439300003,0.384534348995362,15,23,72.0008514520957,3080607.9421822,14.9406375192975,61
62,14.16210625,-15.779088,15.2523449798625,0.372586726675851,15,25,59.6410183261742,2040089.40081901,14.528504188791,62
63,14.120318,-15.2576761666667,14.801832075839,0.27962897835533,21,28,90.1304689500492,1964809.78301318,14.490905996062,63
64,13.956194,-14.807085125,15.9256689689312,0.479271712825963,16,28,85.1087575200166,5708201.4665182,15.5574145524217,64
65,14.2021981666667,-14.9991981666667,15.0044649483726,0.406841663199992,13,23,67.2748335882449,1795989.74156672,14.4010668160054,65
66,14.3091557142857,-14.7335528571429,15.0505464693908,0.348765828840582,12,20,75.118009527244,2099946.55280852,14.5574224513262,66
67,13.9686125,-15.659604,15.3431013357252,0.378629860579319,10,17,57.9993548231662,2172412.51730923,14.5913488670988,67
68,16.3426660714286,-15.6033061428571,16.5971884111231,0.512617389883086,7,16,68.0809337878542,8936917.20440488,16.0057012559595,68
69,16.0017344615385,-14.0177914615385,16.1934375115585,0.484607828943994,12,20,113.045145038716,9909856.33007212,16.1090404087311,69
70,16.3458693478261,-15.996897,17.8529733445491,0.593934619324589,8,22,67.3855099763132,31053404.2640515,17.2512189984676,70
71,16.4773452105263,-14.6709991578947,17.2926000763544,0.618373839261488,8,20,85.5872308865543,22520843.6123126,16.9299518211164,71
72,16.3329695454545,-14.1633267272727,16.549454795999,0.568637000476111,8,18,96.3167804298244,12054070.9118799,16.3049129958583,72
73,16.0094266333333,-16.4706131666667,18.4475856490814,0.670017927417357,6,24,55.0391089402732,45967505.2807938,17.6434452978912,73
74,16.4609604,-15.1186384,16.5131996005018,0.572787098482121,6,17,69.7787050036201,8421884.06975746,15.9463441224415,74
75,13.073574,-14.487445,12.515903854776,0.233334189165893,9,13,90.9794487133668,201662.974941168,12.2143531421005,75
76,12.8372442222222,-14.5175798888889,15.025667501026,0.369492825157699,11,18,105.178553690256,2868048.99220495,14.8691425629145,76
77,13.199219,-15.0725676666667,14.3252924372184,0.310635054488843,16,21,85.0862692694719,1151727.74083157,13.9567737562225,77
78,13.0707137272727,-13.787069,15.4861425300543,0.43923329506807,14,25,138.658255781042,5992207.83511204,15.6059704890103,78
79,13.375341,-14.8648548333333,15.2186979253787,0.518238775107875,13,29,72.0717671011322,2383727.40687319,14.6841759578752,79
80,12.7519807142857,-14.9124048571429,15.2739425406572,0.402303863521068,10,16,84.4414219398023,2951476.90196816,14.8978162477702,80
81,13.0734310769231,-14.1377553076923,16.528911219789,0.541780655141298,14,30,106.477061813026,13054669.5066146,16.3846564443307,81
82,12.7694685714286,-14.0155307142857,14.5560955601191,0.436666790643737,11,18,112.569526632198,1919321.41147182,14.4674822500072,82
83,12.9009287142857,-14.9517152857143,17.2693655995106,0.600529529035773,10,24,78.6148345403676,20211082.6988232,16.8217416603755,83
84,12.5306551818182,-15.7331328181818,16.3549783070447,0.447981223591335,10,17,89.1536566849344,9185670.85764443,16.0331553123577,84
85,12.6556735,-15.79126575,14.9061575409791,0.266617252408189,10,13,85.9165583584798,2078900.61032479,14.5473497592158,85
86,13.0268996666667,-15.5670188333333,15.3012119227066,0.301845175136706,15,19,85.7550161443808,3080252.5519666,14.9405221489799,86
87,12.9969124,-15.7653358,15.736877690382,0.358229006381867,13,17,83.1187939121531,4615654.20219708,15.344964171495,87
88,12.770619,-15.475906,13.6352061653261,0.25784535865181,12,15,92.1650931028659,625685.588474655,13.3466032690772,88
89,12.8262449090909,-15.4214034545455,16.436897103433,0.475870646295957,13,19,83.2488100171761,9309505.96378597,16.046546582731,89
90,13.271961,-15.608209,15.7434529638648,0.451626819234922,16,25,93.7085966863146,5238043.1424281,15.4714585404474,90
91,12.6471171428571,-15.3725094285714,15.1815624150564,0.433866245697533,10,18,85.8913593465914,2737241.70395593,14.8224612939359,91
92,12.7804142857143,-15.908418,15.3372549699063,0.378478007985664,10,15,78.0022878298519,2904607.33932187,14.8818087719453,92
93,12.4091243333333,-16.7372563333333,15.8199255711313,0.52498002156095,7,16,69.0253645633329,4164951.77620553,15.242215255174,93
94,12.4848755,-16.60922225,15.5308233737362,0.45509510446685,9,16,77.463771501797,3500615.54478365,15.0684493809345,94
95,12.91817425,-16.13486175,15.3494092899391,0.314439552764679,11,15,81.7475215677575,3081294.70894556,14.9408604266705,95
96,12.7797651875,-16.1899515,17.1068485041736,0.526572538463582,9,17,65.4517795646558,14302970.922488,16.475977830469,96
97,12.938288375,-16.624847125,16.3125978878103,0.487175829019396,13,23,70.4763760626098,6960007.39486047,15.75569109479,97
98,12.7790105555556,-16.4317264444444,15.534822624248,0.4048033145734,8,13,74.9556515989856,3400846.38545235,15.0395348955045,98
99,12.4764165,-16.402713,14.2610998171566,0.260509411365368,8,11,78.5999941943525,997778.999471578,13.8132870873561,99
100,12.5661777307692,-16.2348497692308,18.1064666291962,0.614626558864327,10,24,69.9093923080484,41511550.916917,17.5414822818202,100
101,12.6493082222222,-12.3140583888889,16.9221490761551,0.621482163787088,8,22,133.55375841578,24263138.0119399,17.0044688023296,101
102,12.6573605714286,-11.6317998571429,15.0686303199441,0.408371412601617,9,17,182.82916505315,5204312.44970061,15.4649981571082,102
103,12.4997326666667,-12.6104376666667,12.9622392251959,0.251744640497255,8,12,219.375339106397,759821.647079415,13.5408390098265,103
104,12.6428746,-12.9239318,13.6023495152033,0.384080462757386,9,16,160.335384088072,1053293.97612316,13.8674329317569,104
105,12.4339393333333,-11.9958293333333,13.3382583209226,0.274849069922609,7,10,173.511062008317,875294.185538964,13.6823153208777,105
106,13.1863175,-11.88539875,16.1943767387563,0.517719312729143,7,19,141.798834027334,12442166.3597936,16.3366017747918,106
107,13.8351656666667,-13.7240967083333,17.4307993637817,0.56459381966191,16,32,111.264310692678,33616364.8887255,17.3305235566226,107
108,13.47692205,-13.481784,15.7035241552767,0.439395037989123,8,19,115.523914234795,6204698.32932581,15.6408173580862,108
109,13.625322,-14.2895196666667,13.9041293091023,0.28105895316401,17,25,124.938573171131,1109885.21232082,13.9197671556175,109
110,14.2164777692308,-14.4216534615385,15.3402795114406,0.409542972894258,15,27,88.9913803134671,3323851.20693702,15.0166346706996,110
111,13.8704546666667,-14.569752,15.4545806680047,0.395087506198574,18,30,101.658836370704,4256759.62885587,15.2640187783009,111
112,14.028266,-13.347909,12.9050403539051,0.35958343171735,13,22,96.6338501308258,316090.895060048,12.6637850938029,112
113,13.6235821666667,-12.6776625,14.0325096708202,0.429658314974206,6,14,105.800138353701,1068618.38441262,13.881877142562,113
114,13.88391975,-13.23558775,14.5794996328477,0.316506297910913,15,22,116.639277682534,2035803.93522155,14.5264013530084,114
115,14.17225,-12.7151553,15.465587792235,0.486279285829232,13,23,125.767964377252,5324567.75507922,15.48784209351,115
116,14.8619701176471,-12.4258991176471,17.1351730302847,0.648727627223535,5,17,125.903554840971,28303749.6696307,17.1585048509966,116
117,13.8979788,-12.1978556,13.7199771532471,0.35943702634428,9,14,137.602218787981,1016788.66203065,13.8321598481566,117
118,14.432678,-12.2657895555556,15.914280104521,0.495142793246992,13,24,163.453015967448,10838566.8310288,16.1986213340754,118
119,15.7122591304348,-13.3798385652174,17.5152531687533,0.593345582048275,9,21,110.517819674543,36333312.7626701,17.4082455853601,119
120,15.964296,-13.6553972727273,16.5187129607909,0.50865502293458,9,17,116.688564161931,14161493.9617569,16.4660371464383,120
121,15.0106553333333,-14.2161928333333,15.6877509465294,0.35128279927767,19,26,112.31502170555,5937948.18360094,15.5968742080301,121
122,15.1439468947368,-12.8663436842105,17.3048332182195,0.618644820488791,6,17,105.631942613066,28137384.9473573,17.1526096752454,122
123,15.4719193333333,-13.1253366666667,16.416584716926,0.533493028153298,6,16,103.369057896662,11327070.4316687,16.2427060321973,123
